0 0
1 0
2 0
3 0
4 0
5 0
6 0
7 0
8 0
9 0
10 0
11 1
12 1
13 7
14 7
15 6
16 27
17 35
18 43
19 71
20 97
21 116
22 168
23 186
24 222
25 299
26 397
27 493
28 626
29 760
30 896
31 1070
32 1206
33 1360
34 1540
35 1675
36 1771
37 1878
38 1932
39 1988
40 1917
41 1940
42 1990
43 2022
44 2055
45 2142
46 1985
47 1981
48 1897
49 1819
50 1825
51 1850
52 1801
53 1622
54 1651
55 1507
56 1422
57 1367
58 1375
59 1297
60 1286
61 1230
62 1145
63 1094
64 990
65 954
66 934
67 856
68 764
69 712
70 666
71 593
72 536
73 544
74 513
75 428
76 403
77 392
78 394
79 318
80 297
81 305
82 278
83 244
84 234
85 246
86 205
87 197
88 154
89 168
90 159
91 166
92 151
93 130
94 120
95 130
96 108
97 95
98 112
99 104
100 87
101 82
102 86
103 70
104 54
105 59
106 59
107 62
108 54
109 68
110 63
111 50
112 40
113 45
114 43
115 42
116 47
117 35
118 43
119 35
120 36
121 26
122 37
123 25
124 23
125 30
126 30
127 26
128 37
129 28
130 25
131 19
132 21
133 24
134 17
135 21
136 31
137 12
138 20
139 19
140 15
141 15
142 16
143 17
144 22
145 17
146 27
147 18
148 12
149 17
150 21
151 13
152 18
153 14
154 21
155 17
156 12
157 16
158 14
159 14
160 20
161 25
162 17
163 15
164 17
165 18
166 14
167 13
168 20
169 14
170 12
171 19
172 23
173 19
174 14
175 17
176 18
177 18
178 19
179 28
180 18
181 23
182 27
183 30
184 29
185 39
186 38
187 32
188 44
189 82
190 132
191 355
192 979
193 2136
194 3763
195 5564
196 8402
197 12647
198 18454
199 21489
200 21203
201 23290
202 25702
203 23282
204 13711
205 4381
206 893
207 206
208 72
209 32
210 29
211 19
212 8
213 8
214 0
215 0
216 0
217 0
218 0
219 0
220 0
221 0
222 0
223 0
224 0
225 0
226 0
227 0
228 0
229 0
230 0
231 0
232 0
233 0
234 0
235 0
236 0
237 0
238 0
239 0
240 0
241 0
242 0
243 0
244 0
245 0
246 0
247 0
248 0
249 0
250 0
251 0
252 0
253 0
254 0
255 0
